%YAML 1.1
%TAG !u! tag:unity3d.com,2011:
--- !u!114 &11400000
MonoBehaviour:
  m_ObjectHideFlags: 0
  m_CorrespondingSourceObject: {fileID: 0}
  m_PrefabInstance: {fileID: 0}
  m_PrefabAsset: {fileID: 0}
  m_GameObject: {fileID: 0}
  m_Enabled: 1
  m_EditorHideFlags: 0
  m_Script: {fileID: 11500000, guid: 77819a1bce2c4b03a3046288c64f14d7, type: 3}
  m_Name: LocationInf_Single_BeginPlayer
  m_EditorClassIdentifier: 
  SettingName: "\u73A9\u5BB6\u521D\u59CB\u70B9"
  TerrainGo: {fileID: 2774054687865642621, guid: 19f6b3071ae2fab4ca04bdabd2ad3e65,
    type: 3}
  locationInformationDatas:
  - Position: {x: -2.65, y: 0, z: -2.75}
    Rotation: {x: -0, y: 0, z: 0}
